[
	{
		"name":"nombre",
		"type":"text",
		"label":"Nombre"
	},
	{
		"name":"apellido",
		"type":"text",
		"label":"Apellido"
	},
	{
		"name":"edad",
		"type":"number",
		"label":"Edad"
	},
	{
		"name":"covid",
		"type":"checkbox",
		"label":"Covid"
	},
	{
		"name":"documento",
		"type":"text",
		"label":"Documento"
	},
	{
		"name":"documento_madre",
		"type":"text",
		"label":"Documento de la madre"
	},
	{
		"name":"button",
		"type":"button",
		"label":"Guardar",
		"action":"guardarPersona"
	},
	{
		"name":"button",
		"type":"button",
		"label":"Cancelar",
		"action":""
	}
]